<?xml version="1.0" encoding="utf-8"?>
<!-- Generator: Adobe Illustrator 22.1.0, SVG Export Plug-In . SVG Version: 6.00 Build 0)  -->
<svg version="1.1" id="Layer_1" xmlns="http://www.w3.org/2000/svg" xmlns:xlink="http://www.w3.org/1999/xlink" x="0px" y="0px"
	 viewBox="0 0 240 336" style="enable-background:new 0 0 240 336;" xml:space="preserve">
<path d="M224.8,106.9h-90.2c-0.2,0-0.4,0-0.6,0.1l0,0c-0.2,0.1-0.4,0.2-0.6,0.4c-7.4,7.3-19.3,7.3-26.7,0c-0.2-0.2-0.4-0.3-0.6-0.4
	l0,0c-0.2-0.1-0.4-0.1-0.6-0.1H15.2c-8.4,0-15.2,6.9-15.2,15.2v176.7c0,8.4,6.8,15.2,15.2,15.2h89.6c4.3,4,9.7,6,15.2,6
	s10.9-2,15.2-6h89.6c8.4,0,15.2-6.8,15.2-15.2V122.1C240,113.8,233.2,106.9,224.8,106.9z M107.2,112.4c3.8,2.7,8.3,4.1,12.8,4.1
	s9-1.4,12.8-4.1v8.4H125c-1,0-1.7,0.8-1.7,1.7V175h-6.5v-52.5c0-1-0.8-1.7-1.7-1.7h-7.9C107.2,120.8,107.2,112.4,107.2,112.4z
	 M144.5,175h-10c2.2-3.2,5.8-5.2,9.8-5.2c6.5,0,11.9,5.3,11.9,11.9c0,6.5-5.3,11.9-11.9,11.9c-4,0-7.6-2-9.8-5.2h10.1
	c3.8,0,6.9-3,6.9-6.7C151.5,178,148.4,175,144.5,175z M144.5,178.5c1.9,0,3.4,1.4,3.4,3.2s-1.5,3.2-3.4,3.2h-49
	c-1.9,0-3.4-1.4-3.4-3.2s1.5-3.2,3.4-3.2H144.5z M144.5,237.5h-10c2.2-3.2,5.8-5.2,9.8-5.2c6.5,0,11.9,5.3,11.9,11.9
	c0,6.5-5.3,11.9-11.9,11.9c-4,0-7.6-2-9.8-5.2h10.1c3.8,0,6.9-3,6.9-6.7S148.4,237.5,144.5,237.5z M144.5,240.9
	c1.9,0,3.4,1.4,3.4,3.2s-1.5,3.2-3.4,3.2h-49c-1.9,0-3.4-1.4-3.4-3.2s1.5-3.2,3.4-3.2H144.5z M95.5,250.8h9.6
	c-2.2,3.2-5.8,5.2-9.8,5.2c-6.5,0-11.9-5.3-11.9-11.9c0-6.5,5.3-11.9,11.9-11.9c4,0,7.6,2,9.8,5.2h-9.6c-3.8,0-6.9,3-6.9,6.7
	C88.5,247.8,91.6,250.8,95.5,250.8z M123.2,237.5h-6.5v-49.1h6.5V237.5z M95.5,188.4h9.6c-2.2,3.2-5.8,5.2-9.8,5.2
	c-6.5,0-11.9-5.3-11.9-11.9c0-6.5,5.3-11.9,11.9-11.9c4,0,7.6,2,9.8,5.2h-9.6c-3.8,0-6.9,3-6.9,6.7
	C88.5,185.4,91.6,188.4,95.5,188.4z M103.7,310.5H15.2c-6.5,0-11.7-5.3-11.7-11.7V122.1c0-6.5,5.3-11.7,11.7-11.7h88.5v10.4H16.2
	c-1,0-1.7,0.8-1.7,1.7v175.9c0,1,0.8,1.7,1.7,1.7h87.5V310.5z M17.9,296.7V124.3h95.4V175h-4.2c-2.6-5.3-7.9-8.6-13.8-8.6
	c-8.5,0-15.3,6.9-15.3,15.3c0,8.5,6.9,15.3,15.3,15.3c5.8,0,11.1-3.2,13.7-8.4c0-0.1,0.1-0.2,0.1-0.2h4.2v49.1h-4.2
	c-2.6-5.3-7.9-8.6-13.8-8.6c-8.5,0-15.3,6.9-15.3,15.3c0,8.4,6.9,15.3,15.3,15.3c5.8,0,11.1-3.2,13.7-8.4c0-0.1,0.1-0.2,0.1-0.2h4.2
	v45.8H17.9L17.9,296.7z M132.8,311.5c-7.2,6.7-18.4,6.7-25.7,0v-11.4h7.9c1,0,1.7-0.8,1.7-1.7v-47.6h6.5v47.6c0,1,0.8,1.7,1.7,1.7
	h7.9V311.5z M126.7,296.7v-45.8h3.8c0,0.1,0.1,0.2,0.1,0.2c2.6,5.2,7.9,8.4,13.7,8.4c8.5,0,15.3-6.9,15.3-15.3
	c0-8.5-6.9-15.3-15.3-15.3c-5.9,0-11.2,3.4-13.8,8.6h-3.8v-49.1h3.8c0,0.1,0.1,0.2,0.1,0.2c2.6,5.2,7.9,8.4,13.7,8.4
	c8.5,0,15.3-6.9,15.3-15.3s-6.9-15.3-15.3-15.3c-5.9,0-11.2,3.4-13.8,8.6h-3.8v-50.7H222v172.4H126.7z M236.5,298.8
	c0,6.5-5.3,11.7-11.7,11.7h-88.5v-10.4h87.5c1,0,1.7-0.8,1.7-1.7V122.5c0-1-0.8-1.7-1.7-1.7h-87.5v-10.4h88.5
	c6.5,0,11.7,5.3,11.7,11.7V298.8z M27,156.1c-1,0-1.7-0.8-1.7-1.7s0.8-1.7,1.7-1.7h74.3c1,0,1.7,0.8,1.7,1.7s-0.8,1.7-1.7,1.7H27z
	 M26,186.6c0-1,0.8-1.7,1.7-1.7h46.4c1,0,1.7,0.8,1.7,1.7s-0.8,1.7-1.7,1.7H27.8C26.8,188.3,26,187.6,26,186.6z M27.8,201.2h66.4
	c1,0,1.7,0.8,1.7,1.7c0,1-0.8,1.7-1.7,1.7H27.8c-1,0-1.7-0.8-1.7-1.7C26,202,26.8,201.2,27.8,201.2z M95.9,219.3
	c0,1-0.8,1.7-1.7,1.7H27.8c-1,0-1.7-0.8-1.7-1.7s0.8-1.7,1.7-1.7h66.4C95.1,217.5,95.9,218.3,95.9,219.3z M75.9,235.6
	c0,1-0.8,1.7-1.7,1.7H27.8c-1,0-1.7-0.8-1.7-1.7s0.8-1.7,1.7-1.7h46.4C75.1,233.8,75.9,234.6,75.9,235.6z M75.9,251.9
	c0,1-0.8,1.7-1.7,1.7H27.8c-1,0-1.7-0.8-1.7-1.7s0.8-1.7,1.7-1.7h46.4C75.1,250.2,75.9,250.9,75.9,251.9z M95.9,268.2
	c0,1-0.8,1.7-1.7,1.7H27.8c-1,0-1.7-0.8-1.7-1.7c0-1,0.8-1.7,1.7-1.7h66.4C95.1,266.5,95.9,267.3,95.9,268.2z M95.9,284.5
	c0,1-0.8,1.7-1.7,1.7H27.8c-1,0-1.7-0.8-1.7-1.7c0-1,0.8-1.7,1.7-1.7h66.4C95.1,282.8,95.9,283.6,95.9,284.5z M214.8,154.3
	c0,1-0.8,1.7-1.7,1.7h-74.3c-1,0-1.7-0.8-1.7-1.7s0.8-1.7,1.7-1.7H213C214,152.6,214.8,153.4,214.8,154.3z M214,186.6
	c0,1-0.8,1.7-1.7,1.7h-46.4c-1,0-1.7-0.8-1.7-1.7s0.8-1.7,1.7-1.7h46.4C213.2,184.9,214,185.7,214,186.6z M214,202.9
	c0,1-0.8,1.7-1.7,1.7h-66.4c-1,0-1.7-0.8-1.7-1.7c0-1,0.8-1.7,1.7-1.7h66.4C213.2,201.2,214,202,214,202.9z M214,219.3
	c0,1-0.8,1.7-1.7,1.7h-66.4c-1,0-1.7-0.8-1.7-1.7s0.8-1.7,1.7-1.7h66.4C213.2,217.5,214,218.3,214,219.3z M214,235.6
	c0,1-0.8,1.7-1.7,1.7h-46.4c-1,0-1.7-0.8-1.7-1.7s0.8-1.7,1.7-1.7h46.4C213.2,233.8,214,234.6,214,235.6z M214,251.9
	c0,1-0.8,1.7-1.7,1.7h-46.4c-1,0-1.7-0.8-1.7-1.7s0.8-1.7,1.7-1.7h46.4C213.2,250.2,214,250.9,214,251.9z M214,268.2
	c0,1-0.8,1.7-1.7,1.7h-66.4c-1,0-1.7-0.8-1.7-1.7c0-1,0.8-1.7,1.7-1.7h66.4C213.2,266.5,214,267.3,214,268.2z M214,284.5
	c0,1-0.8,1.7-1.7,1.7h-66.4c-1,0-1.7-0.8-1.7-1.7c0-1,0.8-1.7,1.7-1.7h66.4C213.2,282.8,214,283.6,214,284.5z"/>
</svg>
