<svg class="margin-top-base-unit-2 margin-bottom-base-unit-2" xmlns="http://www.w3.org/2000/svg" viewBox="0 0 240.5 151.81">
  <path class="svg-fill-gy4" d="M240.05,57.57c-1-3.92-4.19-5.21-6.87-5.89a5.66,5.66,0,0,0-1.38-.15l-.7,0h-.67a4.29,4.29,0,0,1-1.28-.16,6.29,6.29,0,0,0-4.36.31A10.69,10.69,0,0,0,221,55.12,11.77,11.77,0,0,1,218,58l-.35.21a8.12,8.12,0,0,1-3.22,1.37,17.63,17.63,0,0,1-4.4-.08l-.77-.11a12.06,12.06,0,0,1-3.43-.78,24.73,24.73,0,0,1-3.55-2,29.77,29.77,0,0,0-7.71-4,9.82,9.82,0,0,0-5.68.08,8.91,8.91,0,0,0-4.79,2.56,3.59,3.59,0,0,1-2.54.9c-.34,0-.69.06-1.07.12a7.31,7.31,0,0,0,1.61-.51l.42-.19a5,5,0,0,0,1.48-.85c1.32-1.32,1.8-4.18,1.8-6.4v-.74a9.86,9.86,0,0,0-.49-4c-.62-1.54-1.21-2.89-1.84-4.25a24.41,24.41,0,0,1-1.13-3l0-.11c-.11-.36-.23-.71-.35-1.06-.39-1.13-.92-2.68-2.21-2.68a2.19,2.19,0,0,0-1.4.63,11.56,11.56,0,0,0-2.59,3.8,9.16,9.16,0,0,1-2.7,3.74,13.38,13.38,0,0,1-2.52,1.23c-1.62.66-3.3,1.34-4.37,3a18.35,18.35,0,0,0-.88,1.64,11.14,11.14,0,0,1-1.18,2,8,8,0,0,0,.54-1.72,6.6,6.6,0,0,1,.52-1.61c.07-.15.15-.3.22-.44l0-.08a4.19,4.19,0,0,1,1.85-2.2c.2-.11.51-.25.78-.38,1.07-.48,2.28-1,2.46-2a1.52,1.52,0,0,0-.52-1.36,7.74,7.74,0,0,0-2.46-1.47c-.34-.15-.66-.29-1-.44-.49-.26-1-.51-1.49-.76a28.69,28.69,0,0,1-3.44-1.88l-.4-.27c-2.24-1.49-4.76-3.18-7.35-3.18a5.62,5.62,0,0,0-4.2,1.94A11.45,11.45,0,0,0,148,35.34a16.46,16.46,0,0,1-1,1.73,8.26,8.26,0,0,1-3.82,3.08,14.14,14.14,0,0,0-4.34,2.5l-.43.37-.07.07a5.68,5.68,0,0,1-2.92,1.71c-.21,0-.48.05-.74.05-.49,0-.82-.1-.92-.27a1.23,1.23,0,0,1-.06-.63,1.9,1.9,0,0,0-.36-1.48,4.39,4.39,0,0,0-.64-.58c-1-.83-1.19-1.14-1.18-1.24s.11-.11.39-.2a1.69,1.69,0,0,1,.35,0,9,9,0,0,1,2.68.77l.75.29a7.81,7.81,0,0,0,2.53.58,2.57,2.57,0,0,0,1.87-.7A11.79,11.79,0,0,0,141.25,40a12.14,12.14,0,0,1,1.14-1.32,9.23,9.23,0,0,0,2.34-3.48,11.22,11.22,0,0,0,.52-2,9.32,9.32,0,0,1,.56-2,9.8,9.8,0,0,1,1.62-2.22c1.28-1.43,2.72-3.06,1.84-5.3a5.5,5.5,0,0,0-3-3.07,4.64,4.64,0,0,0-2.44-.16,2.94,2.94,0,0,0-.57.21,2.9,2.9,0,0,1-.73.26,2.24,2.24,0,0,1,.48-.53,5.56,5.56,0,0,1,.78-.52,3.24,3.24,0,0,0,1.59-1.61c.53-1.42-1.15-3.36-2.26-3.87a2.48,2.48,0,0,0-1-.25c-.92,0-1.34.73-1.68,1.31a2.91,2.91,0,0,1-.71.93,4,4,0,0,1-2.24.56l-.54,0a4.39,4.39,0,0,1-1.32-.34,1.9,1.9,0,0,1,.38-.21,2.2,2.2,0,0,1,.77-.09h.29c.6,0,1.85,0,1.95-1.33a1.46,1.46,0,0,0-.34-1.17,2.58,2.58,0,0,0-2-.54,2.73,2.73,0,0,1-1-.12c-.06-.2-.05-.29,0-.31s.18-.13.59-.13a5.31,5.31,0,0,1,1.94.43c.13.08.27.17.42.28a2.92,2.92,0,0,0,1.66.71,1.83,1.83,0,0,0,.4,0,1.2,1.2,0,0,0,.87-.7,2.15,2.15,0,0,0-.38-1.87,11.3,11.3,0,0,0-3-3.22c-.7-.51-1.42-.93-2.15-1.37a22.5,22.5,0,0,1-2.1-1.34,15.16,15.16,0,0,0-4.3-2.18c-.91-.32-1.8-.68-2.66-1l-.1,0A30.08,30.08,0,0,0,121.24.37,22,22,0,0,0,117.07,0a26.44,26.44,0,0,0-5,.48A10.5,10.5,0,0,0,107.62,3a13.34,13.34,0,0,1-2.89,1.95c-.71.32-1.46.59-2.23.88a20.27,20.27,0,0,0-4.12,1.87,13.3,13.3,0,0,0-2.65,2.47,14.3,14.3,0,0,1-2.12,2.07,3.88,3.88,0,0,1-1.13.47,6.81,6.81,0,0,0-.86.3,3.26,3.26,0,0,0-1.54,1.39l-.16.21a28.22,28.22,0,0,1-2.85,3.25c-.59.61-1.12,1.16-1.63,1.73a4.48,4.48,0,0,1-3.65,1.88,7.68,7.68,0,0,1-1-.07c-1.64-.2-2.88-.31-4-.36h-.53c-1.78,0-3,.45-3.48,1.32s-.3,1.79.42,3a4.3,4.3,0,0,0,.41.59,1.75,1.75,0,0,1,.47,1A2.15,2.15,0,0,1,73.54,28l-.31.45-.78,1.32c-.46.78-1,1.66-1.54,2.49A14,14,0,0,1,68,35.48c-.34.27-.71.53-1.12.8a9.73,9.73,0,0,0-2.19,1.84c-2.39,3-.45,6.08,1.1,8.54l.5.75a7.48,7.48,0,0,1,1.36,2.68,5.33,5.33,0,0,1-.5,2.44.18.18,0,0,1-.05-.07A7.18,7.18,0,0,1,66.37,50,13.57,13.57,0,0,0,66,48.5c-.05-.16-.1-.35-.16-.56-.32-1.16-.75-2.76-1.95-3.22a1.87,1.87,0,0,0-.67-.14c-1.38,0-1.61,1.72-1.76,2.86,0,.28-.08.56-.12.74-.18.66-1.05,2-1.45,2a.1.1,0,0,1-.08,0c-.06-.09-.06-.46.6-1.89a7.75,7.75,0,0,0,.32-.76l.07-.22a9.47,9.47,0,0,0,.61-3.57c-.13-2.4-1.77-2.81-3.23-3.17a6.46,6.46,0,0,1-2.06-.76c-1.71-1.11-2.36-.76-3.86.1a1.77,1.77,0,0,1-.84.19,1.28,1.28,0,0,1-1-.37.68.68,0,0,1,0-.66c.23-.53,1.85-.67,2.47-.72l.28,0a6.11,6.11,0,0,1,3.13.53l.59.32a3,3,0,0,0,2.11.54,9.1,9.1,0,0,0,4.38-2.41c.36-.3.7-.58,1-.84,2-1.5,4.51-3.36,5.63-5.85l.08-.18c.55-1.2,1.23-2.7.13-4.1a4.67,4.67,0,0,1-.94-2.45c-.05-.26-.1-.54-.16-.84a12.59,12.59,0,0,0-2.51-5.27c-.84-1-2.73-2.68-4.53-2.68a2.12,2.12,0,0,0-.44.05,1.24,1.24,0,0,0,.18-.14,1.11,1.11,0,0,0,.25-1.2,1.88,1.88,0,0,0-1.73-.92,1.51,1.51,0,0,0-1,.32,1.19,1.19,0,0,0-.53,1.34c.23.66,1.09.89,1.76.89h.19l-.2.1a2.91,2.91,0,0,1-1.13.4c-.11,0-.39,0-.8-.53-1-1.35-1.8-2.12-3.8-1.6a14,14,0,0,0-3.69,1.79l-.15.1a45.14,45.14,0,0,0-6.77,5.1,27.19,27.19,0,0,1-3.64,2.84,11,11,0,0,1-3.26,1.31l-.58.17-1.9.51c-.68.18-1.39.36-2.09.57a4.69,4.69,0,0,0-2.56,2.17c-.16.23-.33.47-.51.7l-.07.08a4.41,4.41,0,0,1-1.11,1.16,2.07,2.07,0,0,1-.55.21,1.81,1.81,0,0,0-1.32,1.09A11,11,0,0,0,26,34.35c-.07.45-.15.91-.26,1.34s-.13.59-.2.92a8.8,8.8,0,0,1-1,3,3.26,3.26,0,0,1-1.5,1,5.16,5.16,0,0,0-1.69,1c-1.42,1.41-1.46,3.68-1.49,5.88a16.63,16.63,0,0,1-.19,2.78c-.09.41-.14.82-.2,1.29a8.71,8.71,0,0,1-.39,2,3.87,3.87,0,0,1-.61.9,3.16,3.16,0,0,0-.89,1.68,2.79,2.79,0,0,0,.85,2.25,5.19,5.19,0,0,0,1.82,1.1,1.74,1.74,0,0,0,1.9-.28l.25-.17a.56.56,0,0,1,.29-.1,1.51,1.51,0,0,1,.71.37,2.63,2.63,0,0,0,1.56.66,2.13,2.13,0,0,0,.8-.17,1.39,1.39,0,0,0,.52-.4s.05-.07.06-.07h.07a1.41,1.41,0,0,1,.31.17l.26.16.15.08a2.73,2.73,0,0,0,1.19.38,1.55,1.55,0,0,0,1-.38,1.89,1.89,0,0,0,.45-.61c.06-.1.2-.35.26-.37l.09.06a2.09,2.09,0,0,1-.2,1.24c-.1.21-.3.44-1,.44a7.84,7.84,0,0,1-1.12-.11,7.85,7.85,0,0,0-1.42-.09,2.11,2.11,0,0,0-1.87,1,2.46,2.46,0,0,0,.42,2.37,6.75,6.75,0,0,0,.8.91c.32.32,1.18,1.19,1.06,1.46s-.12.2-.13.2c-.34,0-1.18-1-1.59-1.42a4,4,0,0,0-1.24-1.16,4,4,0,0,0-1.6-.3A12.15,12.15,0,0,0,19,64l-.09,0-.94.25a12.05,12.05,0,0,0-1.63.57,10.33,10.33,0,0,1-1.5.52,5.43,5.43,0,0,1-1.14,0,8.43,8.43,0,0,0-.86-.05,1.66,1.66,0,0,0-1.29.44,1.29,1.29,0,0,0-.26,1,4.31,4.31,0,0,0,.51,1.41,2.24,2.24,0,0,1,.35,1.63,5.45,5.45,0,0,1-2,2.31l-.29.24L8.89,73a12.11,12.11,0,0,0-2.47,2.21c-1.06,1.44-.09,3,.69,4.26.17.28.34.54.48.81.85,1.55,1.73,3.16,3.67,3.73l.08,0c.91.27,1.19.35,1.28,1.1a1.69,1.69,0,0,1-.32,1.08c-.1.11-.15.13-.28,0s-.16-.33-.22-.6a2,2,0,0,0-.71-1.34,4,4,0,0,0-2.26-.46c-.26,0-.51,0-.71,0s-.52-.12-.89-.22a14.57,14.57,0,0,0-3.17-.57,1.54,1.54,0,0,0-1.4.55,1.33,1.33,0,0,0,0,1.3,7.14,7.14,0,0,0,1.9,2.24,10.76,10.76,0,0,1,1.17,1.17,3.48,3.48,0,0,1,.42.62,9.68,9.68,0,0,1-1.87-.55l-.07,0L4,88.31A2.73,2.73,0,0,0,3,88a1,1,0,0,0-.63.2,1.07,1.07,0,0,0-.41,1.07s0,.1,0,.1,0,0,0,0l-.23-.09A1.77,1.77,0,0,0,1,89.17a1,1,0,0,0-.84.45C0,89.9,0,90.37.06,91.37v.08a1.49,1.49,0,0,1,0,.19c.11,2.17,1.47,3.65,2.8,5.09A11.06,11.06,0,0,1,5.22,100l.15.39a4.9,4.9,0,0,0,2.09,2.9,8.27,8.27,0,0,0,3,.84l1,.16.19,0c1.33.27,2.37.47,2.85,1.71a5.64,5.64,0,0,1,.29,1.87,6.75,6.75,0,0,0,.39,2.28c.23.57.5,1.14.78,1.74s.51,1.09.73,1.63A3.54,3.54,0,0,0,20.06,116a9.42,9.42,0,0,0,2.77-.37c.42-.1.86-.2,1.31-.27a10.13,10.13,0,0,1,1.16-.09,5,5,0,0,0,3-.79,5.28,5.28,0,0,0,.77-.79,5,5,0,0,1,.8-.83.94.94,0,0,1,.17.29,2.88,2.88,0,0,1,.11.42c.06.28.18.88.77.88a1.58,1.58,0,0,0,.92-.43,5.41,5.41,0,0,0,1-1.12l.34-.46c.14-.16.26-.32.38-.48.8-1,1.13-1.34,2.22-.94a6.14,6.14,0,0,0,2,.46,2.49,2.49,0,0,0,2.17-1.32c.1-.16.18-.3.27-.47.22-.41.3-.54.71-.65a2.81,2.81,0,0,1,1.72.31l.24.12a18.18,18.18,0,0,0,3.66,1.37,5.53,5.53,0,0,0,1.14.13c1.4,0,2.29-.73,2.87-2.36l.13-.43c.19-.64.24-.7.64-.68a1.94,1.94,0,0,1,.63.15,1.87,1.87,0,0,0,.64.14,1.58,1.58,0,0,0,1-.4,1,1,0,0,1,.58-.27,2.12,2.12,0,0,1,.94.48l.24.18,1.16.81,1.18.83.18.13a2.39,2.39,0,0,0,1.35.59h.06a1.07,1.07,0,0,0,.77-.34,1.73,1.73,0,0,0,.25-1.33,7.86,7.86,0,0,0-.22-1.33,5.65,5.65,0,0,1-.2-1.51c.07-1.24,1.22-2.36,2.35-3.45a16.21,16.21,0,0,0,1.42-1.51c1.67-2.19,1.9-4.46.59-6.07-.13-.17-.27-.34-.41-.5a5.4,5.4,0,0,1-1.2-1.85c-.13-.43-.14-.74,0-.83a.68.68,0,0,1,.27,0h.4a1.66,1.66,0,0,0,.62-.1c.59-.25.91-.61.94-1.07a1.28,1.28,0,0,0-.28-.83l.1.06a4,4,0,0,1,1.73,1.41c.13.29.09.39.08.4s-.59.26-.91.33a2.47,2.47,0,0,0-1.14.43c-1,.85-.19,2.11.35,2.94a3.92,3.92,0,0,1,.48.86,7.36,7.36,0,0,1-.42,3.47l0,.15a6.5,6.5,0,0,1-.68,1.74,7.5,7.5,0,0,1-.49.68,4.66,4.66,0,0,0-1,1.84c-.24,1.19.41,2.62,1.93,4.23A22.35,22.35,0,0,0,67,110.09l.72.57a5.71,5.71,0,0,0,3.4,1.11h.13a8.1,8.1,0,0,1,1.2.26,6,6,0,0,0,1.72.32,4.06,4.06,0,0,0,.51,0,3.49,3.49,0,0,0,2.13-1.56,2.22,2.22,0,0,0,.39-1.78,2.12,2.12,0,0,0-2.3-1.55,4.76,4.76,0,0,1-.77-.1,3.11,3.11,0,0,1-1.85-1.92c0-.15,0-.21,0-.22a.74.74,0,0,1,.49,0,2.78,2.78,0,0,1,1,.8l.25.26a8.44,8.44,0,0,0,2.79,1.65,8.08,8.08,0,0,1,2.36,1.33c.42.39.83.83,1.22,1.26l0,0c.31.34.63.68,1,1l.67.65c.74.71,1.57,1.52,2.31,2.34a17.77,17.77,0,0,0,3.14,2.61,22.47,22.47,0,0,1,2.53,2,18.43,18.43,0,0,0,2.61,2.23c.3.2.62.38.93.57a7.94,7.94,0,0,1,1.65,1.14A8.52,8.52,0,0,1,97,126a11.13,11.13,0,0,0,1.53,2.75,5.2,5.2,0,0,0,3.58,1.58,5,5,0,0,1,2.81,1,11.9,11.9,0,0,1,1.52,1.93c.13.19.25.38.38.55a5.8,5.8,0,0,0,2.66,2.14l.37.17a5.89,5.89,0,0,0,2.21.73,1.19,1.19,0,0,0,.88-.34c.78-.81.12-1.77-.29-2.35a3.82,3.82,0,0,1-.36-.63,5.21,5.21,0,0,1,1.07,1,3.18,3.18,0,0,0,3,1.49,3.15,3.15,0,0,1,1.25.3,3.25,3.25,0,0,1,.61.43,4.27,4.27,0,0,0,.76.53,1.89,1.89,0,0,0,.86.22,2.41,2.41,0,0,0,1.27-.45,1.19,1.19,0,0,1,1-.28,1.54,1.54,0,0,1,.54.37,2.34,2.34,0,0,0,.86.56,1.57,1.57,0,0,0,.49.07,3.64,3.64,0,0,0,1.58-.51l.37-.18a3.25,3.25,0,0,1,.5-.17,3.88,3.88,0,0,0,.78-.28,11.21,11.21,0,0,0,2.46-1.57,7.49,7.49,0,0,0,1-1.15,7.42,7.42,0,0,1,.69-.86,2.33,2.33,0,0,1,1.28-.69c.09,0,.24,0,.38.33a2.11,2.11,0,0,1-.65.24c-.46.13-.93.26-1.06.71a.83.83,0,0,0,.27.82,3.06,3.06,0,0,0,2.3.68,3.88,3.88,0,0,1,1.1.11,4.74,4.74,0,0,1,.62.38,3.68,3.68,0,0,0,1.84.83,1.07,1.07,0,0,0,.74-.28,1.25,1.25,0,0,0,.19-1.56c0-.06-.07-.16-.09-.23a1.91,1.91,0,0,1,.33.06,2,2,0,0,0,.63.06c.86-.11,1.05-.81,1.19-1.3a1.82,1.82,0,0,1,.07-.25c.19-.55.51-.7,1.1-1l.22-.11a3.86,3.86,0,0,0,1.78-2.12,2.18,2.18,0,0,0-.13-1.71c-.11-.18-.2-.31-.29-.43A.61.61,0,0,1,143,127a6.86,6.86,0,0,1,.7-1.84c.09-.19.18-.37.26-.56a18.39,18.39,0,0,0,1.48-4.08,25.53,25.53,0,0,1,1.24-3.91,9,9,0,0,1,2.86-3.48l.41-.35c1.65-1.43,3.52-3,4.07-5.42a2.58,2.58,0,0,0-.06-1.87,1.89,1.89,0,0,0-1-.7l-.33-.15c-.39-.23-.48-.5-.44-.63a.14.14,0,0,1,.08-.1.83.83,0,0,1,.6,0c1.48.53,1.59,2.28,1.7,4.14a13.38,13.38,0,0,0,.2,1.88,4.41,4.41,0,0,0,1,1.82l.14.19a1.4,1.4,0,0,1,.27.49s-.16.11-.51.15a6.7,6.7,0,0,1-.79,0,4,4,0,0,0-1.9.34,2,2,0,0,0-1.17,1.41,1.17,1.17,0,0,0,.43,1,2.3,2.3,0,0,0,1.64.46h.77a32,32,0,0,0,4.31.17h1.25a20.48,20.48,0,0,1,4,.31l.14,0a20.83,20.83,0,0,0,4.12.55,6.46,6.46,0,0,0,2.28-.36,6.62,6.62,0,0,0,2.73-2.14l.3-.35a17.22,17.22,0,0,1,2.7-2.4c1.74-1.24,3.92-2.79,6.21-2.79h.08c1,0,2.09-.06,3.16-.16a42.76,42.76,0,0,0,7.61-1.5q.51-.15,1.14-.3l.12,0c2.27-.58,4.5-1.36,6.2-2,1.07-.39,2.14-.86,3.12-1.3a37.61,37.61,0,0,1,3.8-1.52,18.61,18.61,0,0,0,4.73-2.07,17.9,17.9,0,0,0,4.21-4.18l.77-1c1.44-2,3.85-5.21,4.46-6.26l.45-.77a15.57,15.57,0,0,1,2.22-3.27,20.76,20.76,0,0,0,4.6-7.8A29.55,29.55,0,0,1,231,73.06l.34-.66c.12-.24.23-.48.37-.75a6.62,6.62,0,0,1,2.09-2.87,17,17,0,0,1,1.73-1,14.89,14.89,0,0,0,2.26-1.39C241.09,63.76,240.73,60.3,240.05,57.57ZM61.18,14.18s0,0,0,.09a.88.88,0,0,1-.45.09A1.7,1.7,0,0,1,60,14.2a1.21,1.21,0,0,1,.17-.18.62.62,0,0,1,.31-.06A1.31,1.31,0,0,1,61.18,14.18Zm-.06,72c-.28-.19-1-.68-1.06-.94l.06-.07c.11,0,.39.14,1.09,1.07Zm116-26.59a3.26,3.26,0,0,0,.54,2.33,2.21,2.21,0,0,1,.43,1.64c-.08.36-.37.81-.62.81a.32.32,0,0,1-.17-.06c-.1,0-.12-.15-.13-.56a1.72,1.72,0,0,0-1.14-1.85c-.27-.12-.33-.16-.38-.35a2.46,2.46,0,0,1,.4-1.42l.08-.15a8,8,0,0,1,2.12-2.9,3.92,3.92,0,0,1,1.58-.69A4.21,4.21,0,0,0,177.16,59.59ZM29.88,111.86c-.62,0-1.13.6-1.63,1.19a4.4,4.4,0,0,1-.58.61,4.24,4.24,0,0,1-2.44.59,10.76,10.76,0,0,0-1.24.11,13.49,13.49,0,0,0-1.44.3,8.31,8.31,0,0,1-2.44.33,2.54,2.54,0,0,1-2.45-1.86c-.22-.54-.48-1.1-.77-1.73s-.52-1.09-.74-1.64a5.74,5.74,0,0,1-.31-2,6.87,6.87,0,0,0-.36-2.18c-.69-1.75-2.23-2.06-3.6-2.33l-.19,0c-.35-.07-.71-.13-1.1-.18A7.82,7.82,0,0,1,8,102.37,4,4,0,0,1,6.32,100l-.15-.39A12.05,12.05,0,0,0,3.63,96c-1.26-1.36-2.44-2.65-2.53-4.45,0-.06,0-.16,0-.33A6.12,6.12,0,0,1,1,90.19H1l.25.09a1.32,1.32,0,0,0,.94.1,1,1,0,0,0,.71-1.18s0-.14,0-.16a2.2,2.2,0,0,1,.66.21l.26.11.07,0A8.37,8.37,0,0,0,6.3,90a.89.89,0,0,0,.89-.46c.21-.43,0-1-.64-1.81a12.09,12.09,0,0,0-1.29-1.29,6.47,6.47,0,0,1-1.65-1.9.82.82,0,0,1-.1-.33s.1-.1.55-.1a14.31,14.31,0,0,1,3,.56c.47.12.79.2,1,.23s.52,0,.81,0a3.49,3.49,0,0,1,1.7.28c.16.11.22.4.28.71a1.71,1.71,0,0,0,.72,1.27,1.18,1.18,0,0,0,1.54-.26A2.66,2.66,0,0,0,13.63,85c-.18-1.41-1.07-1.67-2-1.94l-.07,0C10,82.62,9.23,81.2,8.48,79.82c-.15-.27-.32-.55-.51-.85-.71-1.14-1.39-2.23-.73-3.12a11.84,11.84,0,0,1,2.31-2l.91-.7.29-.24a6.18,6.18,0,0,0,2.35-2.82,3.09,3.09,0,0,0-.41-2.36,3.52,3.52,0,0,1-.41-1.1c0-.16,0-.23,0-.24s.09-.1.52-.1c.24,0,.51,0,.78,0a5.32,5.32,0,0,0,1.44,0,11.24,11.24,0,0,0,1.69-.58,11,11,0,0,1,1.46-.51l1.07-.29a11.39,11.39,0,0,1,3-.57,3,3,0,0,1,1.21.22,5.26,5.26,0,0,1,.87.89c.76.87,1.55,1.77,2.35,1.77a1.16,1.16,0,0,0,1.06-.8c.4-.9-.48-1.8-1.27-2.6a6.25,6.25,0,0,1-.66-.73c-.37-.59-.51-1.1-.37-1.38s.72-.42,1.05-.44a5.59,5.59,0,0,1,1.22.09,10.36,10.36,0,0,0,1.23.1,1.93,1.93,0,0,0,1.94-1,3.09,3.09,0,0,0,.22-2.05,1,1,0,0,0-.61-.62A1.25,1.25,0,0,0,30,57.7c-.63,0-.94.54-1.14.89a1.48,1.48,0,0,1-.21.32.56.56,0,0,1-.36.16,1.84,1.84,0,0,1-.72-.28l-.16-.08-.18-.11a1.58,1.58,0,0,0-.87-.33,1.07,1.07,0,0,0-.88.44c-.07.08-.09.1-.14.12-.53.22-.9,0-1.37-.37a2.28,2.28,0,0,0-1.31-.57,1.58,1.58,0,0,0-.83.26l-.33.22c-.27.19-.35.24-.48.24a1.55,1.55,0,0,1-.46-.11,4.19,4.19,0,0,1-1.45-.87,1.76,1.76,0,0,1-.55-1.43,2.48,2.48,0,0,1,.67-1.13A4.45,4.45,0,0,0,20,53.89a9.73,9.73,0,0,0,.45-2.22c.05-.4.1-.81.18-1.2a16.91,16.91,0,0,0,.22-3c0-2,.06-4.06,1.18-5.17a4.22,4.22,0,0,1,1.39-.82,4.17,4.17,0,0,0,1.92-1.35,9.17,9.17,0,0,0,1.15-3.35l0-.08c.06-.28.12-.56.18-.81.11-.46.2-1,.27-1.4a10.28,10.28,0,0,1,.66-2.5.84.84,0,0,1,.69-.55,3.51,3.51,0,0,0,.75-.29,5.72,5.72,0,0,0,1.43-1.43l.06-.09c.2-.25.37-.5.54-.75a3.79,3.79,0,0,1,2-1.77c.68-.2,1.37-.38,2.06-.56s1.27-.33,1.93-.52l.56-.16a11.85,11.85,0,0,0,3.54-1.44A27.67,27.67,0,0,0,45,21.53a43.84,43.84,0,0,1,6.62-5l.16-.09a12.84,12.84,0,0,1,3.41-1.67,3.53,3.53,0,0,1,.87-.14c.71,0,1.07.33,1.87,1.37a2,2,0,0,0,1.6.93,3.72,3.72,0,0,0,1.58-.51l.38-.18a1.64,1.64,0,0,1,.67-.14c1.19,0,2.79,1.16,3.75,2.31a11.46,11.46,0,0,1,2.29,4.83c.06.29.11.56.16.82A5.68,5.68,0,0,0,69.51,27c.72.91.27,1.9-.25,3.05l-.08.18c-1,2.25-3.4,4-5.31,5.46-.37.27-.72.56-1.09.86a8.16,8.16,0,0,1-3.86,2.19,2,2,0,0,1-1.47-.4c-.19-.12-.41-.24-.66-.37a7.32,7.32,0,0,0-3.67-.62l-.27,0c-1.06.1-2.83.25-3.31,1.33a1.63,1.63,0,0,0,0,1.62,2.19,2.19,0,0,0,1.88.84,2.74,2.74,0,0,0,1.36-.34,3.66,3.66,0,0,1,1.52-.65,2.47,2.47,0,0,1,1.26.54,7.77,7.77,0,0,0,2.38.89c1.43.35,2.37.59,2.45,2.23A8.53,8.53,0,0,1,59.87,47l-.07.22a6.83,6.83,0,0,1-.27.63c-.49,1.06-1.1,2.39-.38,3.06a1.13,1.13,0,0,0,.78.32c1.33,0,2.34-2.47,2.43-2.8a8,8,0,0,0,.15-.87c.09-.74.26-2,.75-2a.72.72,0,0,1,.3.07c.73.28,1.1,1.64,1.34,2.55.06.21.11.41.17.58.12.4.21.88.31,1.38a7.77,7.77,0,0,0,.9,2.84,1.12,1.12,0,0,0,.91.6.92.92,0,0,0,.72-.36,5.79,5.79,0,0,0,.77-3.34,8.29,8.29,0,0,0-1.54-3.12c-.16-.23-.32-.46-.46-.68-1.46-2.3-3.11-4.91-1.16-7.37a8.4,8.4,0,0,1,2-1.63,14.48,14.48,0,0,0,1.18-.85,15.62,15.62,0,0,0,3.09-3.44c.57-.86,1.1-1.75,1.56-2.53l.06-.11L74.1,29l.27-.39a2.94,2.94,0,0,0,.71-1.69,2.7,2.7,0,0,0-.68-1.56,5.36,5.36,0,0,1-.34-.49c-.52-.9-.66-1.6-.42-2s1.23-.81,2.6-.81h.48c1.12,0,2.34.16,3.94.36a9.65,9.65,0,0,0,1.13.08,5.46,5.46,0,0,0,4.41-2.22c.51-.58,1.06-1.15,1.6-1.7a28.93,28.93,0,0,0,3-3.37l.16-.22a2.36,2.36,0,0,1,1.12-1,6.47,6.47,0,0,1,.75-.26A4.38,4.38,0,0,0,94.21,13a15.13,15.13,0,0,0,2.29-2.23,12.45,12.45,0,0,1,2.43-2.27,19.25,19.25,0,0,1,3.92-1.78c.71-.26,1.53-.56,2.3-.9a14.45,14.45,0,0,0,3.12-2.1,9.61,9.61,0,0,1,4-2.28,24.17,24.17,0,0,1,8.76-.11,29.12,29.12,0,0,1,5.44,1.79c.9.37,1.83.74,2.8,1.08a14.5,14.5,0,0,1,4,2,22,22,0,0,0,2.23,1.43,23.08,23.08,0,0,1,2,1.29,10.21,10.21,0,0,1,2.75,2.92c.33.56.35.87.31,1s-.12.09-.18.1c-.35.09-.76-.17-1.23-.5l-.49-.33a6.17,6.17,0,0,0-2.45-.57,1.63,1.63,0,0,0-1.42.56,1.3,1.3,0,0,0-.1,1.23c.26.78,1.14.79,1.92.8.47,0,1,0,1.23.21a.53.53,0,0,1,.08.41c0,.27-.07.39-.94.39h-.29a2.92,2.92,0,0,0-1.18.18c-.29.13-1.17.53-1.05,1.27.18,1,2.3,1.22,2.32,1.22.2,0,.41,0,.62,0a5,5,0,0,0,2.84-.76,3.72,3.72,0,0,0,1-1.24c.33-.57.5-.8.8-.8a1.45,1.45,0,0,1,.59.16c.8.37,2,1.84,1.73,2.58a2.38,2.38,0,0,1-1.17,1.1,6,6,0,0,0-.92.63c-.34.3-1.23,1.09-.69,1.89a1,1,0,0,0,.84.42,3.15,3.15,0,0,0,1.21-.36,1.84,1.84,0,0,1,.33-.13,3.56,3.56,0,0,1,1.9.12A4.45,4.45,0,0,1,148.33,24c.64,1.66-.42,2.86-1.67,4.27a10.47,10.47,0,0,0-1.78,2.46,10.54,10.54,0,0,0-.63,2.27,9.43,9.43,0,0,1-.47,1.83,8.11,8.11,0,0,1-2.09,3.11,13.69,13.69,0,0,0-1.25,1.44,11.52,11.52,0,0,1-1.1,1.28,1.61,1.61,0,0,1-1.17.42,7.5,7.5,0,0,1-2.22-.53l-.61-.24-.07,0c-1.16-.47-2.71-1.05-3.7-.76-.63.19-1,.51-1.09,1-.17.84.77,1.62,1.53,2.24.18.16.42.36.49.44a1,1,0,0,1,.14.78,2,2,0,0,0,.19,1.19,1.89,1.89,0,0,0,1.8.78,7.21,7.21,0,0,0,.85,0,6.39,6.39,0,0,0,3.48-2l.49-.42a13,13,0,0,1,4-2.33,9.14,9.14,0,0,0,4.29-3.44,15.1,15.1,0,0,0,1.09-1.85,10.12,10.12,0,0,1,1.6-2.43,4.58,4.58,0,0,1,3.46-1.63c2.28,0,4.67,1.6,6.78,3l.4.27a32.84,32.84,0,0,0,3.59,2c.48.24,1,.48,1.44.73l1,.47a7,7,0,0,1,2.13,1.25c.19.19.27.35.25.47-.08.43-1.2.93-1.87,1.24a8.19,8.19,0,0,0-.89.43,5.12,5.12,0,0,0-2.24,2.62c-.08.15-.16.32-.26.5a7.59,7.59,0,0,0-.6,1.86,5.94,5.94,0,0,1-.68,1.89,7.71,7.71,0,0,1-.55.59c-.79.8-1.69,1.71-1.34,2.47a.79.79,0,0,0,.74.5c.7,0,1.55-.92,2.7-2.4l.08-.12.13-.15a11.06,11.06,0,0,0,1.46-2.42,16.62,16.62,0,0,1,.83-1.53c.9-1.41,2.35-2,3.89-2.62a14.43,14.43,0,0,0,2.71-1.32,10,10,0,0,0,3-4.13A10.86,10.86,0,0,1,179,33.84a1.22,1.22,0,0,1,.74-.38c.57,0,1,1.29,1.25,2,.13.37.25.74.38,1.15a25.39,25.39,0,0,0,1.18,3.15c.63,1.35,1.21,2.68,1.81,4.2a8.94,8.94,0,0,1,.43,3.58c0,.25,0,.5,0,.76,0,2-.39,4.58-1.5,5.68a4.61,4.61,0,0,1-1.16.64l-.47.21a6.64,6.64,0,0,1-1.55.47,5.54,5.54,0,0,0-2.46,1,8.88,8.88,0,0,0-2.41,3.25l-.07.15a3.12,3.12,0,0,0-.49,2.12,1.55,1.55,0,0,0,.94,1,1,1,0,0,1,.47.33,1.4,1.4,0,0,1,.09.6,1.47,1.47,0,0,0,.64,1.44,1.39,1.39,0,0,0,.67.19c.93,0,1.47-1,1.62-1.62a3.21,3.21,0,0,0-.54-2.34,2.37,2.37,0,0,1-.44-1.65,3.11,3.11,0,0,1,2.29-2.49,11,11,0,0,1,1.25-.16A4.61,4.61,0,0,0,184.83,56a8,8,0,0,1,4.35-2.31,8.88,8.88,0,0,1,5.12-.11,29.19,29.19,0,0,1,7.46,3.88,25.1,25.1,0,0,0,3.69,2.08,12.89,12.89,0,0,0,3.71.86l.23,0,.53.07a19.17,19.17,0,0,0,4.65.09A9.07,9.07,0,0,0,218.21,59l.34-.21a12.17,12.17,0,0,0,3.19-3.08,9.85,9.85,0,0,1,3.47-3.11,5.3,5.3,0,0,1,3.64-.27,5.06,5.06,0,0,0,1.58.21l.7,0h.67a4,4,0,0,1,1.12.12c3.59.91,5.48,2.5,6.14,5.15.91,3.61.31,6-1.93,7.78A14.08,14.08,0,0,1,235,66.88,17.5,17.5,0,0,0,233.19,68a7.37,7.37,0,0,0-2.42,3.25l-.06.12c-.1.21-.2.41-.31.62l-.34.67a30.3,30.3,0,0,0-1.76,3.82,20.06,20.06,0,0,1-4.39,7.44,16.94,16.94,0,0,0-2.37,3.47l-.44.76c-.59,1-3.17,4.52-4.41,6.19l-.76,1a16.54,16.54,0,0,1-4,3.93,17.35,17.35,0,0,1-4.47,2,35.8,35.8,0,0,0-3.93,1.58c-1,.43-2,.89-3,1.26-1.68.61-3.88,1.38-6.09,1.94l-.13,0c-.4.1-.81.2-1.17.31a41.66,41.66,0,0,1-7.43,1.47c-1.05.1-2.08.15-3.06.15h-.1c-2.6,0-4.92,1.66-6.79,3a17.77,17.77,0,0,0-2.85,2.54l-.32.36a5.79,5.79,0,0,1-2.31,1.86,5.43,5.43,0,0,1-1.93.3,20.46,20.46,0,0,1-3.93-.54l-.13,0a21.28,21.28,0,0,0-4.18-.33h-1.26a33.89,33.89,0,0,1-4.19-.17,3.94,3.94,0,0,0-.47,0h-.41a1.61,1.61,0,0,1-1-.19c-.1-.1-.1-.15-.09-.17,0-.19.31-.48.62-.64a3.28,3.28,0,0,1,1.45-.22c.27,0,.58,0,.9,0,.7-.08,1.14-.32,1.32-.74a1.52,1.52,0,0,0-.38-1.51l-.15-.2a3.63,3.63,0,0,1-.78-1.42,13,13,0,0,1-.18-1.73c-.11-1.91-.25-4.28-2.37-5a1.74,1.74,0,0,0-1.42,0,1.13,1.13,0,0,0-.58.72,1.63,1.63,0,0,0,.91,1.78,4,4,0,0,0,.47.21,1.37,1.37,0,0,1,.52.29,2.17,2.17,0,0,1-.07,1.12c-.48,2-2.14,3.48-3.75,4.87l-.42.37a9.81,9.81,0,0,0-3.13,3.87,27,27,0,0,0-1.29,4.07,17.3,17.3,0,0,1-1.41,3.87c-.05.13-.12.26-.18.4l-.06.13a7.86,7.86,0,0,0-.8,2.12,1.63,1.63,0,0,0,.36,1.41,2,2,0,0,1,.22.32,1.07,1.07,0,0,1,0,.9,2.77,2.77,0,0,1-1.25,1.52l-.21.1a2.59,2.59,0,0,0-1.62,1.56c0,.12-.07.24-.1.36-.14.5-.19.51-.32.52a1.45,1.45,0,0,1-.29-.05,3.12,3.12,0,0,0-.58-.08.93.93,0,0,0-.94.65,1.38,1.38,0,0,0,.13,1c.14.34.12.35.06.41s-.37,0-1.33-.64a4.58,4.58,0,0,0-.84-.49,4.48,4.48,0,0,0-1.44-.18,3.63,3.63,0,0,1-1.34-.18l.09,0a1.81,1.81,0,0,0,1.28-.76,1,1,0,0,0,0-.85,1.33,1.33,0,0,0-1.3-1,3.31,3.31,0,0,0-2,1,9,9,0,0,0-.81,1,6.71,6.71,0,0,1-.81,1,9.83,9.83,0,0,1-2.24,1.41,3.25,3.25,0,0,1-.6.21,6,6,0,0,0-.63.22l-.43.21a2.19,2.19,0,0,1-1.29.37,1.58,1.58,0,0,1-.5-.35,2.39,2.39,0,0,0-.92-.58,1.53,1.53,0,0,0-.52-.08,2.43,2.43,0,0,0-1.29.46c-.4.25-.7.42-1.14.2a4.22,4.22,0,0,1-.58-.42,4.27,4.27,0,0,0-.81-.56,4.21,4.21,0,0,0-1.65-.39,2.24,2.24,0,0,1-2.2-1.09c-.28-.36-1.27-1.53-2-1.53-.39,0-.81.26-.86,1a2.36,2.36,0,0,0,.56,1.33c.47.68.55.9.39,1.07a.38.38,0,0,1-.15,0,5.59,5.59,0,0,1-1.8-.64l-.39-.18a4.78,4.78,0,0,1-2.22-1.78c-.13-.2-.27-.39-.41-.59a12,12,0,0,0-1.63-2,5.74,5.74,0,0,0-3.34-1.3,4.4,4.4,0,0,1-3-1.23,9.94,9.94,0,0,1-1.38-2.51,9.51,9.51,0,0,0-2-3.2,9.28,9.28,0,0,0-1.85-1.3c-.29-.16-.59-.34-.88-.53a17.68,17.68,0,0,1-2.46-2.11,22.31,22.31,0,0,0-2.66-2.1,18.11,18.11,0,0,1-3-2.45c-.77-.86-1.62-1.68-2.36-2.4l-.67-.65c-.33-.32-.65-.67-1-1s-.81-.89-1.25-1.29A9,9,0,0,0,77.24,107a7.55,7.55,0,0,1-2.47-1.44,2.5,2.5,0,0,1-.23-.23,3.48,3.48,0,0,0-1.49-1.07,1.46,1.46,0,0,0-1.55.29,1.24,1.24,0,0,0-.25,1,4,4,0,0,0,2.61,2.76,5.61,5.61,0,0,0,1,.12c.84.06,1.2.11,1.39.81a1.27,1.27,0,0,1-.26,1,2.52,2.52,0,0,1-1.43,1.11,4.4,4.4,0,0,1-1.82-.25,7.28,7.28,0,0,0-1.36-.29l-.14,0a4.63,4.63,0,0,1-2.85-.89l-.74-.58a20.61,20.61,0,0,1-2.39-2c-1.25-1.32-1.84-2.5-1.68-3.33a4,4,0,0,1,.82-1.42c.18-.24.38-.5.55-.77a7.25,7.25,0,0,0,.79-2l0-.14a8.2,8.2,0,0,0,.44-4,4,4,0,0,0-.63-1.21C65,93.52,64.72,93,65,92.8a2.37,2.37,0,0,1,.72-.22,2.13,2.13,0,0,0,1.59-.86,1.43,1.43,0,0,0-.06-1.27,4.67,4.67,0,0,0-2.15-1.89c-.28-.15-.53-.3-.74-.44a9.13,9.13,0,0,1-1.66-1.63l-.26-.32a2.48,2.48,0,0,1-.22-.28c-.63-.88-1.32-1.74-2.09-1.74a1,1,0,0,0-.81.4,1.07,1.07,0,0,0-.25.85c.11.7.91,1.24,1.5,1.63a3.5,3.5,0,0,1,.37.26,4.47,4.47,0,0,1,.66.78,4.2,4.2,0,0,0,1.3,1.29c.61.35.86.71.86.79a.79.79,0,0,1-.32.2.66.66,0,0,1-.23,0h-.4a1.45,1.45,0,0,0-.86.24c-.36.26-.72.81-.37,2A6.28,6.28,0,0,0,63,94.76l.39.48c1.47,1.81-.1,4.14-.61,4.81a15.05,15.05,0,0,1-1.33,1.41c-1.2,1.16-2.56,2.48-2.64,4.12a6.15,6.15,0,0,0,.22,1.79,6.54,6.54,0,0,1,.2,1.2c0,.17,0,.49,0,.54h-.09a1.81,1.81,0,0,1-.76-.4l-.2-.14L57,107.75c-.38-.27-.77-.55-1.16-.81l-.23-.17a2.74,2.74,0,0,0-1.52-.67,2,2,0,0,0-1.21.49c-.23.18-.33.18-.36.18a1.41,1.41,0,0,1-.31-.08,3.22,3.22,0,0,0-.91-.21c-1.25,0-1.48.79-1.66,1.42l0,.06c0,.1-.06.21-.1.31-.56,1.58-1.25,1.91-2.83,1.57a17.55,17.55,0,0,1-3.48-1.31l-.22-.1a4.24,4.24,0,0,0-1.74-.45,2.36,2.36,0,0,0-.65.08,1.91,1.91,0,0,0-1.36,1.15,4.42,4.42,0,0,1-.23.4,1.48,1.48,0,0,1-1.31.85,5.32,5.32,0,0,1-1.64-.4,3.3,3.3,0,0,0-1.12-.22c-1.09,0-1.65.73-2.27,1.53l-.34.44c-.1.13-.22.28-.37.5a5.7,5.7,0,0,1-.76.91l-.09.06a3.15,3.15,0,0,0-.15-.51C30.64,112,30.2,111.86,29.88,111.86ZM63,91.13Zm85.29-71.7c0,.1.08.22.12.34.27.77.63,1.83,1.59,2a1.6,1.6,0,0,0,.3,0,.85.85,0,0,0,.75-.38c.33-.53,0-1.31-.43-2.06l0-.07A28.06,28.06,0,0,1,149.2,16l0-.15c-.22-.67-.51-1.58-1.23-1.58a.89.89,0,0,0-.72.43c-.7,1,.1,2.64.74,3.94C148.1,18.93,148.24,19.21,148.33,19.43Zm1.36.36,0,.08a7.32,7.32,0,0,1,.41.87c-.32-.19-.55-.87-.7-1.3-.05-.14-.09-.27-.14-.38a9.31,9.31,0,0,0-.42-.91,7.38,7.38,0,0,1-.89-2.49c0,.12.1.28.16.47l.06.18A29.11,29.11,0,0,0,149.69,19.79ZM42,109.4a.84.84,0,0,0-.62.26,1.3,1.3,0,0,0-.32,1,2,2,0,0,0,2,1.9,1,1,0,0,0,.9-.47,1.39,1.39,0,0,0-.2-1.44A2.49,2.49,0,0,0,42,109.4Zm1,2.07c-.29,0-.83-.35-.83-.84v-.12a2.13,2.13,0,0,1,.69.66A1.7,1.7,0,0,1,43,111.47Zm11.44-2.56a1.39,1.39,0,0,0-1.86.55,1.6,1.6,0,0,0,.43,1.71,3.24,3.24,0,0,0,2,.89,1.14,1.14,0,0,0,1.15-.75C56.56,110.21,55.3,109.26,54.42,108.91Zm.77,2.07a.38.38,0,0,1-.15,0,2.2,2.2,0,0,1-1.27-.54c-.22-.24-.29-.47-.25-.57s.14-.06.18-.06a.94.94,0,0,1,.34.07C54.6,110.12,55.28,110.7,55.19,111Zm78.16,34.94c-.36-.33-.71-.64-.75-1a1.34,1.34,0,0,1,0-.35,1.31,1.31,0,0,0-.59-1.3,1.94,1.94,0,0,0-1-.22h-.44l-.3,0a11.71,11.71,0,0,1-3.08-.34,10.42,10.42,0,0,1-3.17-1.72,15,15,0,0,0-2.49-1.5,11.58,11.58,0,0,0-4.09-.87,3.43,3.43,0,0,0-2.4.73,1.2,1.2,0,0,0-.36,1.18c.27,1.07,2,1.86,2.56,2a12.36,12.36,0,0,1,3,1.42l.72.41a14,14,0,0,1,4.79,4.43,8.69,8.69,0,0,0,2.18,2.22,3.72,3.72,0,0,0,2.21.72,4.15,4.15,0,0,0,1.14-.17,2.19,2.19,0,0,0,.91-.57c.1-.08.18-.16.29-.24a4.07,4.07,0,0,1,.52-.28,3.42,3.42,0,0,0,.78-.44c1.28-1,1.12-2,.49-3.12A4.4,4.4,0,0,0,133.35,145.92Zm-17.61-5.75a2.46,2.46,0,0,1,1.69-.46,10.36,10.36,0,0,1,3.68.79,14.18,14.18,0,0,1,2.33,1.42,11.58,11.58,0,0,0,3.46,1.85,12.63,12.63,0,0,0,3.36.37h.37a2,2,0,0,1,.83.06c.1.06.11.07.1.39a3.45,3.45,0,0,0,0,.53,2.75,2.75,0,0,0,1.09,1.58,3.58,3.58,0,0,1,.73.8c.55,1,.43,1.29-.23,1.82a2.89,2.89,0,0,1-.58.31,4.35,4.35,0,0,0-.68.38,3.17,3.17,0,0,0-.38.31,1.41,1.41,0,0,1-.52.35,2.76,2.76,0,0,1-2.47-.41,7.54,7.54,0,0,1-1.93-2,15.12,15.12,0,0,0-5.13-4.73l-.7-.41a13.41,13.41,0,0,0-3.3-1.52c-.61-.17-1.72-.83-1.83-1.27C115.65,140.31,115.64,140.27,115.74,140.17Zm13.54,1.57.75.09.21,0a4.91,4.91,0,0,0,1.06.16,1.22,1.22,0,0,0,1-.39,1.17,1.17,0,0,0,.21-1,1.48,1.48,0,0,0-.34-.71,1.58,1.58,0,0,1-.15-.24,2.27,2.27,0,0,1-.08-.5,2.06,2.06,0,0,0-.36-1.17,2.12,2.12,0,0,0-1.71-.84,2.27,2.27,0,0,0-1.37.47,2.86,2.86,0,0,0-.75.94c-.2.35-.24.43-.66.43h-.36a1.1,1.1,0,0,0-.94.36,1,1,0,0,0-.1.88C126,141.42,127.89,141.61,129.28,141.74Zm-2.56-1.67h.36a1.55,1.55,0,0,0,1.56-1,1.83,1.83,0,0,1,.48-.62,1.19,1.19,0,0,1,1.63.17,1.22,1.22,0,0,1,.15.63,2.93,2.93,0,0,0,.14.78,2.18,2.18,0,0,0,.29.48.71.71,0,0,1,.15.26c0,.09,0,.14,0,.15a.59.59,0,0,1-.2,0,4.06,4.06,0,0,1-.85-.13l-.23-.05a7.77,7.77,0,0,0-.84-.1C128.78,140.65,127,140.47,126.72,140.07Z"/>
  <path class="svg-fill-starhub" d="M99.73,65.86H95.21a2.4,2.4,0,0,0-1.32.68h0a2.39,2.39,0,0,0-.7,1.69V85.69a2.39,2.39,0,0,0,2.39,2.39H125a2.36,2.36,0,0,0,1.69-.7h0a2.39,2.39,0,0,0,.7-1.69V68.25a2.41,2.41,0,0,0-2-2.37H121a.52.52,0,0,1-.18,0Zm.45-1.2h20.2V61.25a10.09,10.09,0,0,0-.77-3.85,10.22,10.22,0,0,0-2.2-3.29,10,10,0,0,0-3.28-2.19,9.91,9.91,0,0,0-3.85-.77,10,10,0,0,0-7.14,3,10.07,10.07,0,0,0-3,7.13Zm-4.36,0H99V61.24a11.27,11.27,0,0,1,.85-4.31,11.47,11.47,0,0,1,2.47-3.67,11.26,11.26,0,0,1,12.29-2.45,11.61,11.61,0,0,1,3.67,2.46,11.41,11.41,0,0,1,2.45,3.67,11.27,11.27,0,0,1,.86,4.31v3.41h3.16v-3.4a14.39,14.39,0,0,0-1.09-5.53A14.6,14.6,0,0,0,120.5,51a14.45,14.45,0,0,0-15.73-3.15,14.54,14.54,0,0,0-7.85,7.84,14.35,14.35,0,0,0-1.1,5.52Zm16.59,6.82a3,3,0,0,0-5.15,2.13,3.08,3.08,0,0,0,.33,1.38,3,3,0,0,0,.93,1.08.55.55,0,0,1,.25.48V81.9a.92.92,0,0,0,.9.9h1.2a.9.9,0,0,0,.9-.9h0V76.58a.62.62,0,0,1,.25-.51A3.06,3.06,0,0,0,113,75a3,3,0,0,0-.55-3.51m-2.13-2.08a4.22,4.22,0,0,0-2.7,7.45V81.9a2.12,2.12,0,0,0,.61,1.48,2.08,2.08,0,0,0,1.48.61h1.2A2.1,2.1,0,0,0,113,81.9h0V76.85a4.21,4.21,0,0,0-2.68-7.45M125,89.28H95.58A3.6,3.6,0,0,1,92,85.69V68.25a3.57,3.57,0,0,1,1.06-2.53h0a3.62,3.62,0,0,1,1.57-.92V61.24a15.57,15.57,0,0,1,4.6-11.06,15.66,15.66,0,0,1,26.71,11.08v3.53a3.61,3.61,0,0,1,2.63,3.46V85.69a3.57,3.57,0,0,1-1.06,2.53h0a3.58,3.58,0,0,1-2.53,1"/>
</svg>
