<svg xmlns="http://www.w3.org/2000/svg" viewBox="0 0 71.8 81.3" style="height: 73px">
	<g class="a-rotate">
		<path class="svg-fill-sr4" d="M61.5,31.3c4.2-4.6,6.2-8.6,5.7-10.9c-1-0.5-2.4-0.7-4.2-0.7c-2,0-4.4,0.3-7.1,0.9c-2.4,0.5-4.9,1.3-7.6,2.3
			c0.5,3,0.8,6.1,1,9.4c2.2,1.6,4.3,3.1,6.3,4.7C57.8,35,59.8,33.1,61.5,31.3"/>
		<path class="svg-fill-sr4" d="M34.2,32c2.5,0,4.6,1.3,5.8,3.3c1.6,1.2,2.7,3.2,2.7,5.4c0,3.7-3,6.7-6.7,6.7c-2.5,0-4.6-1.3-5.8-3.3
			c-1.6-1.2-2.7-3.2-2.7-5.4C27.4,35,30.4,32,34.2,32 M34.1,51.1c1.8-0.9,3.7-1.9,5.5-3c1.8-1,3.5-2.1,5.2-3.2c0.1-2,0.2-4.1,0.2-6.1
			c0-1.8,0-3.5-0.1-5.3c-1.1-0.7-2.3-1.4-3.5-2.1c-1.8-1.1-3.7-2.1-5.5-3c-1.8,0.9-3.7,1.9-5.5,3c-1.8,1-3.5,2.1-5.2,3.2
			c-0.1,2-0.2,4.1-0.2,6.1c0,1.8,0,3.5,0.1,5.3c1.1,0.7,2.3,1.4,3.5,2.1C30.5,49.1,32.3,50.2,34.1,51.1"/>
		<path class="svg-fill-sr4" d="M12.8,36.9c2.4-2,5.1-3.9,8-5.8c0.2-3.1,0.5-6.1,0.9-8.9c-1.9-0.6-3.8-1.2-5.6-1.6c-2.8-0.6-5.2-1-7.2-1
			c-2.9,0-4.8,0.7-5.6,1.9c-1.2,2,0.4,5.8,4.2,10.3C9,33.5,10.8,35.2,12.8,36.9"/>
		<path class="svg-fill-sr4" d="M41.5,66.1c0.6-2,1.2-4.2,1.6-6.5c-2.4-1-4.8-2.1-7.3-3.4c-3.1,1.6-6.2,2.9-9.2,4.1c0.5,2.8,1.1,5.4,1.9,7.7
			c1,3.3,2.2,5.9,3.5,7.7c0.7,0.6,1.4,0.9,2.1,0.9C36.7,76.6,39.4,72.6,41.5,66.1"/>
	</g>
	<path class="svg-fill-black" d="M35.9,78.5c-1.3,0-2.6-1-3.9-2.8c-1.2-1.8-2.4-4.4-3.5-7.7c-0.7-2.3-1.4-4.9-1.9-7.7c3-1.2,6-2.5,9.2-4.1
		c2.5,1.2,4.9,2.4,7.3,3.4c0.7,0.3,1.3,0.5,1.9,0.8c-0.5,2.8-1.1,5.3-1.9,7.6C41.2,74.6,38.4,78.5,35.9,78.5 M16,60.8
		c-6.7,1.5-11.5,1.2-12.8-1c-1.3-2.2,0.7-6.5,5.4-11.6c1.7-1.9,3.7-3.8,5.9-5.6c2.4,2,5.1,4,8,5.9c0.2,3.5,0.6,6.9,1.1,10.1
		C20.9,59.4,18.3,60.2,16,60.8 M22.3,44.8c-2-1.4-3.8-2.8-5.6-4.2c1.8-1.4,3.6-2.8,5.6-4.2c0,1.4-0.1,2.8-0.1,4.2
		C22.2,42.1,22.2,43.4,22.3,44.8 M8.6,33.1c-0.4-0.5-0.8-0.9-1.2-1.3c-3.8-4.5-5.4-8.3-4.2-10.3C4,20.2,6,19.5,8.9,19.5
		c2,0,4.4,0.3,7.2,1c1.8,0.4,3.7,1,5.6,1.6c0.6,0.2,1.3,0.4,1.9,0.7c-0.5,3.2-0.9,6.6-1.1,10.2c-2.8,1.9-5.5,3.9-8,5.8
		C12.3,36.9,10.3,35,8.6,33.1 M26.2,23.8c2.1,0.9,4.3,1.8,6.6,2.9c-1.3,0.7-2.5,1.4-3.8,2.1c-1.2,0.7-2.4,1.4-3.6,2.2
		C25.6,28.5,25.9,26.1,26.2,23.8 M28.6,13.3c2.1-6.6,4.8-10.5,7.3-10.5c2.5,0,5.3,3.9,7.3,10.5c0.7,2.3,1.4,4.9,1.9,7.7
		c-3,1.2-6,2.5-9.2,4.1c-3.1-1.6-6.2-3-9.2-4.2C27.2,18.2,27.8,15.6,28.6,13.3 M46.4,31c-1.2-0.7-2.3-1.5-3.5-2.2
		c-1.3-0.7-2.5-1.5-3.8-2.1c2.2-1.1,4.4-2,6.5-2.9C45.9,26.2,46.2,28.6,46.4,31 M68.6,21.6c1.3,2.2-0.7,6.5-5.4,11.6
		c-1.7,1.9-3.7,3.8-5.9,5.6c-2.4-2-5.1-4-8-5.9c0-0.3,0-0.5-0.1-0.8c-0.2-3.3-0.6-6.4-1-9.4c2.7-1,5.2-1.7,7.6-2.3
		c2.7-0.6,5.1-0.9,7.1-0.9c1.8,0,3.2,0.2,4.2,0.7C67.8,20.7,68.3,21.1,68.6,21.6 M49.5,36.5c2,1.4,3.8,2.8,5.6,4.2
		c-1.8,1.4-3.6,2.8-5.6,4.2c0-1.4,0.1-2.8,0.1-4.2C49.6,39.3,49.5,37.9,49.5,36.5 M63.2,48.2c4.6,5.1,6.6,9.5,5.3,11.6
		c-1.3,2.2-6.1,2.6-12.8,1c-2.4-0.5-4.9-1.3-7.5-2.3c0.5-3.2,0.9-6.6,1.1-10.2c2.8-1.9,5.5-3.9,8-5.8C59.5,44.4,61.5,46.3,63.2,48.2
		 M46.6,46.8c-1.7,1.1-3.4,2.2-5.2,3.2c-1.8,1.1-3.7,2.1-5.5,3c-1.8-0.9-3.6-2-5.5-3c-1.8-1-3.5-2.1-5.2-3.2c0-0.3,0-0.6,0-0.9
		c-0.1-1.7-0.1-3.5-0.1-5.3c0-2.1,0.1-4.1,0.1-6.1c1.7-1.1,3.4-2.2,5.2-3.2c1.8-1.1,3.7-2.1,5.5-3c1.8,0.9,3.6,2,5.5,3
		c1.2,0.7,2.4,1.4,3.5,2.1c0.6,0.4,1.1,0.7,1.7,1.1c0.1,2,0.1,4.1,0.1,6.1C46.7,42.7,46.7,44.8,46.6,46.8 M25.4,50.3
		c1.2,0.7,2.3,1.5,3.5,2.2c1.3,0.7,2.5,1.5,3.8,2.2c-2.2,1.1-4.4,2-6.5,2.9C25.9,55.2,25.6,52.8,25.4,50.3 M45.5,57.5
		c-2.1-0.9-4.3-1.8-6.6-2.9c1.3-0.7,2.5-1.4,3.8-2.1c1.2-0.7,2.4-1.4,3.6-2.2C46.2,52.8,45.9,55.2,45.5,57.5 M45.9,68.8
		c0.7-2.3,1.3-4.8,1.8-7.5c2.6,0.9,5,1.7,7.4,2.2c3.2,0.7,5.7,1,7.8,1c4.9,0,7.1-1.7,8-3.3c1.4-2.4,1.6-7-5.7-15
		c-1.7-1.8-3.6-3.7-5.8-5.6c2.2-1.9,4.1-3.7,5.8-5.6c7.3-8,7.1-12.5,5.7-14.9c-1.4-2.4-5.3-4.8-15.8-2.4c-2.3,0.5-4.8,1.3-7.4,2.2
		c-0.5-2.7-1.1-5.2-1.9-7.5C42.7,2.2,38.7,0,35.9,0c-2.8,0-6.8,2.2-10,12.5c-0.7,2.3-1.3,4.8-1.8,7.5c-2.6-0.9-5-1.7-7.4-2.2
		C6.1,15.3,2.2,17.7,0.8,20.1c-1.4,2.4-1.6,6.9,5.7,15c1.7,1.8,3.6,3.7,5.8,5.6c-2.2,1.9-4.1,3.7-5.8,5.6c-7.3,8-7.1,12.5-5.7,14.9
		c1,1.7,3.2,3.4,8.1,3.4c2.1,0,4.6-0.3,7.7-1c2.3-0.5,4.8-1.3,7.4-2.2c0.5,2.7,1.1,5.2,1.9,7.5c3.2,10.3,7.2,12.5,10,12.5
		C38.7,81.3,42.7,79.2,45.9,68.8"/>
		<path class="svg-fill-black" d="M39.8,40.7c0,2.2-1.8,3.9-3.9,3.9c-2.2,0-3.9-1.8-3.9-3.9c0-2.2,1.8-3.9,3.9-3.9
		C38.1,36.7,39.8,38.5,39.8,40.7 M29.1,40.7c0,1.2,0.3,2.4,0.9,3.4c1.2,2,3.3,3.3,5.8,3.3c3.7,0,6.7-3,6.7-6.7c0-2.2-1-4.1-2.7-5.4
		c-1.1-0.9-2.6-1.4-4.1-1.4C32.2,33.9,29.1,36.9,29.1,40.7"/>
</svg>
